{
    "value1": 1,
    "value2": 2.3,
    "value3": True,
    "value4": "foo",
    "value5": [ 1, 2, 3 ],
    "value6": { "v61": "bar", "v62": True },
    "value8": [ { "a": "d" }, { "a": "e" } ],
    "value9": { "v91": "hi", "v92": { "v92a": "Hi", "v92b": 3 } }
}
